<svg width="21" height="21" viewBox="0 0 21 21" fill="none" xmlns="http://www.w3.org/2000/svg">
<path fill-rule="evenodd" clip-rule="evenodd" d="M2.13049 2.1416C1.71628 2.1416 1.38049 2.47739 1.38049 2.8916V16.5873C1.38049 17.8419 2.39758 18.859 3.65223 18.859H17.3479C18.6025 18.859 19.6196 17.8419 19.6196 16.5873V5.93508C19.6196 5.52087 19.2838 5.18508 18.8696 5.18508H10.8751L8.81745 2.4416C8.67581 2.25275 8.45352 2.1416 8.21745 2.1416H2.13049ZM2.88049 16.5873V3.6416H7.84245L9.90006 6.38508C10.0417 6.57393 10.264 6.68508 10.5001 6.68508H18.1196V16.5873C18.1196 17.0135 17.7741 17.359 17.3479 17.359H3.65223C3.22601 17.359 2.88049 17.0135 2.88049 16.5873ZM10.5001 8.9895C10.9143 8.9895 11.2501 9.32529 11.2501 9.7395V11.2723H12.7827C13.1969 11.2723 13.5327 11.6081 13.5327 12.0223C13.5327 12.4365 13.1969 12.7723 12.7827 12.7723H11.2501V14.3047C11.2501 14.7189 10.9143 15.0547 10.5001 15.0547C10.0858 15.0547 9.75006 14.7189 9.75006 14.3047V12.7723H8.21745C7.80324 12.7723 7.46745 12.4365 7.46745 12.0223C7.46745 11.6081 7.80324 11.2723 8.21745 11.2723H9.75006V9.7395C9.75006 9.32529 10.0858 8.9895 10.5001 8.9895Z" fill="#56C5D0"/>
</svg>
