<svg width="187" height="128" viewBox="0 0 187 128" fill="none" xmlns="http://www.w3.org/2000/svg">
<path d="M94.7773 128C129.562 128 157.76 99.7058 157.76 64.8029C157.76 29.8999 129.562 1.60547 94.7773 1.60547C59.9928 1.60547 31.7944 29.8999 31.7944 64.8029C31.7944 99.7058 59.9928 128 94.7773 128Z" fill="#EAEEF9"/>
<path d="M58.3782 7.02859C60.0422 6.48592 60.9527 4.69247 60.4119 3.02282C59.871 1.35317 58.0836 0.439577 56.4197 0.982249C54.7557 1.52492 53.8452 3.31836 54.386 4.98801C54.9269 6.65766 56.7143 7.57126 58.3782 7.02859Z" fill="#EAEEF9"/>
<path d="M130.007 116.81H15.5737L36.4835 20.2969H151.044L130.007 116.81Z" fill="white"/>
<path d="M130.007 116.81H15.5737L36.4835 20.2969H151.044L130.007 116.81Z" fill="#D5DAE8"/>
<path d="M63.9831 116.81H40.2853C35.9766 116.81 32.4283 113.122 32.6817 108.799L36.4835 20.2969H42.1862L63.9831 116.81Z" fill="url(#paint0_linear_10833_147679)"/>
<path d="M176.135 116.81H61.7019L42.3128 42.6766L42.1861 42.168L36.4834 20.2969H151.044L155.986 39.2434L156.746 42.168L156.873 42.6766L176.135 116.81Z" fill="white"/>
<path d="M156.746 42.168H42.1861L36.4834 20.2969H151.044L155.986 39.2434L156.746 42.168Z" fill="#EFF3FB"/>
<path opacity="0.3" d="M66.6441 35.9369C68.8837 35.9369 70.6993 34.1151 70.6993 31.8679C70.6993 29.6206 68.8837 27.7988 66.6441 27.7988C64.4045 27.7988 62.5889 29.6206 62.5889 31.8679C62.5889 34.1151 64.4045 35.9369 66.6441 35.9369Z" fill="#ADB6C8"/>
<path opacity="0.3" d="M133.556 35.9369C135.795 35.9369 137.611 34.1151 137.611 31.8679C137.611 29.6206 135.795 27.7988 133.556 27.7988C131.316 27.7988 129.5 29.6206 129.5 31.8679C129.5 34.1151 131.316 35.9369 133.556 35.9369Z" fill="#ADB6C8"/>
<path d="M65.6306 33.5214C64.8702 33.5214 64.2366 32.8856 64.2366 32.1227C64.2366 31.3597 64.8702 30.7239 65.6306 30.7239C68.4185 30.7239 71.3332 26.782 71.3332 20.8056C71.3332 20.6785 71.3332 20.4241 71.3332 20.297C71.2065 14.4477 68.2918 10.8873 65.6306 10.8873C63.096 10.8873 60.3081 14.3206 59.9279 19.6612H57.0132C57.3934 13.049 61.0684 8.08984 65.5038 8.08984C70.1927 8.08984 73.8677 13.5576 74.1212 20.5513C74.1212 20.6785 74.1212 20.8056 74.1212 20.9328C74.2479 27.9265 70.4461 33.5214 65.6306 33.5214Z" fill="#ADB6C8"/>
<path d="M132.162 33.5214C131.401 33.5214 130.768 32.8856 130.768 32.1227C130.768 31.3597 131.401 30.7239 132.162 30.7239C134.95 30.7239 137.864 26.782 137.864 20.8056C137.864 20.6785 137.864 20.4241 137.864 20.297C137.738 14.4477 134.823 10.8873 132.162 10.8873C129.627 10.8873 126.839 14.3206 126.459 19.6612H123.544C123.925 13.049 127.6 8.08984 132.035 8.08984C136.724 8.08984 140.399 13.5576 140.652 20.5513C140.652 20.6785 140.652 20.8056 140.652 20.9328C140.779 27.9265 136.977 33.5214 132.162 33.5214Z" fill="#ADB6C8"/>
<path d="M1 116.683H185.386" stroke="#D5DAE8" stroke-width="2" stroke-miterlimit="10" stroke-linecap="round" stroke-linejoin="round"/>
<path opacity="0.3" d="M134.189 70.7795C133.429 70.7795 132.922 70.1437 132.922 69.5079C132.922 68.745 133.429 68.2363 134.189 68.2363H138.118C138.878 68.2363 139.385 68.8721 139.385 69.5079C139.385 70.2709 138.751 70.7795 138.118 70.7795H134.189Z" fill="#D5DAE8"/>
<path opacity="0.3" d="M80.2038 106.638C79.6969 106.638 79.19 106.256 78.9365 105.748L76.9089 98.2455H66.8976C66.1372 98.2455 65.6303 97.6097 65.6303 96.9739C65.6303 96.2109 66.2639 95.7023 66.8976 95.7023H76.1486L72.9804 84.5124H63.3492C62.5889 84.5124 62.082 83.8766 62.082 83.2408C62.082 82.4779 62.5889 81.9693 63.3492 81.9693H72.2201L69.0519 70.7794H59.9276C59.1673 70.7794 58.6604 70.1436 58.6604 69.5078C58.6604 68.7449 59.1673 68.2362 59.9276 68.2362H68.4183L65.2501 57.0463H56.506C55.7457 57.0463 55.2388 56.4106 55.2388 55.7748C55.2388 55.0118 55.7457 54.5032 56.506 54.5032H64.4898L63.2225 49.9255C63.0958 49.2897 63.476 48.5268 64.1096 48.3996C64.2363 48.3996 64.363 48.3996 64.4898 48.3996C64.9967 48.3996 65.5036 48.7811 65.757 49.2897L67.2777 54.5032H77.4158C78.1762 54.5032 78.6831 55.0118 78.6831 55.7748C78.6831 56.5377 78.1762 57.0463 77.4158 57.0463H68.0381L71.2063 68.2362H87.1737L82.1047 49.9255C81.978 49.2897 82.3581 48.5268 82.9918 48.3996C83.1185 48.3996 83.2452 48.3996 83.3719 48.3996C83.8789 48.3996 84.3858 48.7811 84.6392 49.2897L86.1599 54.5032H91.6091C92.3695 54.5032 92.8764 55.0118 92.8764 55.7748C92.8764 56.5377 92.2428 57.0463 91.6091 57.0463H86.9203L90.0884 68.2362H100.86C101.62 68.2362 102.127 68.872 102.127 69.5078C102.127 70.2708 101.62 70.7794 100.86 70.7794H90.8488L94.0169 81.9693H110.111L103.141 57.0463H99.7196C98.9593 57.0463 98.4523 56.4106 98.4523 55.7748C98.4523 55.0118 99.086 54.5032 99.7196 54.5032H102.381L101.114 49.9255C100.987 49.544 101.114 49.2897 101.24 48.9082C101.367 48.6539 101.62 48.3996 102.001 48.2725C102.127 48.2725 102.254 48.2725 102.381 48.2725C102.888 48.2725 103.395 48.6539 103.648 49.1626L105.169 54.376H107.83C108.59 54.376 109.097 54.8847 109.097 55.6476C109.097 56.4106 108.59 56.9192 107.83 56.9192H105.929L109.097 68.1091H125.192L122.023 56.9192H113.786C113.026 56.9192 112.519 56.2834 112.519 55.6476C112.519 54.8847 113.153 54.376 113.786 54.376H120.883L119.616 49.7984C119.489 49.1626 119.869 48.3996 120.503 48.2725C120.629 48.2725 120.756 48.2725 120.883 48.2725C121.39 48.2725 121.897 48.6539 122.15 49.1626L123.671 54.376H139.765L138.498 49.7984C138.371 49.1626 138.751 48.3996 139.385 48.2725C139.512 48.2725 139.638 48.2725 139.765 48.2725C140.272 48.2725 140.779 48.6539 141.032 49.1626L142.553 54.376H152.438C153.198 54.376 153.705 54.8847 153.705 55.6476C153.705 56.4106 153.198 56.9192 152.438 56.9192H142.933L146.101 68.1091H155.606C156.366 68.1091 156.873 68.7449 156.873 69.3806C156.873 70.1436 156.366 70.6522 155.606 70.6522H146.862L150.03 81.8421H159.154C159.914 81.8421 160.421 82.4779 160.421 83.1137C160.421 83.8766 159.914 84.3853 159.154 84.3853H150.79L153.958 95.5752H162.576C163.336 95.5752 163.843 96.2109 163.843 96.8467C163.843 97.6097 163.209 98.1183 162.576 98.1183H154.592L156.493 104.858C156.62 105.493 156.239 106.256 155.606 106.384C155.479 106.384 155.352 106.384 155.226 106.384C154.719 106.384 154.212 106.002 153.958 105.493L151.931 98.1183H135.837L137.737 104.731C137.864 105.112 137.737 105.366 137.611 105.748C137.484 106.002 137.23 106.256 136.85 106.384C136.724 106.384 136.597 106.384 136.47 106.384C135.963 106.384 135.456 106.002 135.203 105.493L133.175 98.2455H117.081L118.982 104.858C119.109 105.493 118.729 106.256 118.095 106.384C117.968 106.384 117.841 106.384 117.715 106.384C117.208 106.384 116.701 106.002 116.447 105.493L114.42 98.2455H98.3256L100.227 104.858C100.353 105.493 99.9731 106.256 99.3394 106.384C99.2127 106.384 99.086 106.384 98.9593 106.384C98.4524 106.384 97.9454 106.002 97.692 105.493L95.6644 98.2455H79.5702L81.4711 104.985C81.5978 105.366 81.4711 105.621 81.3443 106.002C81.2176 106.256 80.9642 106.511 80.584 106.638C80.4572 106.638 80.3305 106.638 80.2038 106.638ZM116.321 95.7023H151.17L148.002 84.5124H131.908L133.049 88.5815C133.175 88.963 133.049 89.2173 132.922 89.5987C132.795 89.8531 132.542 90.1074 132.161 90.2345C132.035 90.2345 131.908 90.2345 131.781 90.2345C131.274 90.2345 130.767 89.8531 130.514 89.3444L129.247 84.6396H124.431C123.671 84.6396 123.164 84.0038 123.164 83.368C123.164 82.6051 123.671 82.0964 124.431 82.0964H128.486L125.318 70.9065H109.351L112.519 82.0964H116.447C117.208 82.0964 117.715 82.7322 117.715 83.368C117.715 84.131 117.208 84.6396 116.447 84.6396H113.153L116.321 95.7023ZM97.5653 95.7023H113.659L110.491 84.5124H94.3971L97.5653 95.7023ZM78.8098 95.7023H94.904L91.7359 84.5124H87.047C86.2866 84.5124 85.7797 83.8766 85.7797 83.2408C85.7797 82.4779 86.4134 81.9693 87.047 81.9693H91.1022L87.9341 70.7794H71.8399L75.008 81.9693H79.19C79.9503 81.9693 80.4572 82.6051 80.4572 83.2408C80.4572 84.0038 79.8236 84.5124 79.19 84.5124H75.7684L78.8098 95.7023ZM131.274 81.9693H147.369L140.399 57.0463H124.178L131.274 81.9693Z" fill="#D5DAE8"/>
<path d="M95.0387 68.9923C89.7727 68.9923 85.3493 65.6231 83.6642 60.7799C83.2429 59.727 83.8748 58.6742 84.928 58.253C85.9812 57.8319 87.0344 58.4636 87.4557 59.5165C88.5089 62.6751 91.6685 64.9914 95.0387 64.9914C98.4089 64.9914 101.568 62.8856 102.622 59.5165C103.043 58.4636 104.096 57.8319 105.149 58.253C106.203 58.6742 106.834 59.727 106.413 60.7799C104.728 65.8337 100.305 68.9923 95.0387 68.9923Z" fill="#ADB6C8"/>
<path d="M126.845 68.9923C121.579 68.9923 117.156 65.6231 115.471 60.7799C115.05 59.727 115.681 58.6742 116.735 58.253C117.788 57.8319 118.841 58.4636 119.262 59.5165C120.316 62.6751 123.475 64.9914 126.845 64.9914C130.216 64.9914 133.375 62.8856 134.428 59.5165C134.85 58.4636 135.903 57.8319 136.956 58.253C138.009 58.6742 138.641 59.727 138.22 60.7799C136.535 65.8337 132.111 68.9923 126.845 68.9923Z" fill="#ADB6C8"/>
<path d="M117.179 94.7753C119.855 94.7753 122.024 92.6069 122.024 89.9321C122.024 87.2572 119.855 85.0889 117.179 85.0889C114.504 85.0889 112.334 87.2572 112.334 89.9321C112.334 92.6069 114.504 94.7753 117.179 94.7753Z" fill="#ADB6C8"/>
<path d="M16.4253 7.41481V1.17188H40.5531V7.41481L24.0894 27.2787H40.8369V33.5216H15.5737V27.2787L32.0374 7.41481H16.4253Z" fill="#ADB6C8"/>
<path d="M47.575 46.8146V42.8418H63.1871V46.8146L52.6845 59.5842H63.471V63.557H47.0073V59.5842L57.51 46.8146H47.575Z" fill="#ADB6C8"/>
<defs>
<linearGradient id="paint0_linear_10833_147679" x1="32.6585" y1="68.5387" x2="64.0298" y2="68.5387" gradientUnits="userSpaceOnUse">
<stop stop-color="#D5DAE8"/>
<stop offset="1" stop-color="#9AA3BA"/>
</linearGradient>
</defs>
</svg>
