<svg width="14" height="14" viewBox="0 0 14 14" fill="none" xmlns="http://www.w3.org/2000/svg">
<path fill-rule="evenodd" clip-rule="evenodd" d="M12.6666 7.00016C12.6666 10.1298 10.1296 12.6668 6.99998 12.6668C3.87037 12.6668 1.33331 10.1298 1.33331 7.00016C1.33331 3.87055 3.87037 1.3335 6.99998 1.3335C10.1296 1.3335 12.6666 3.87055 12.6666 7.00016ZM6.99998 13.6668C10.6819 13.6668 13.6666 10.6821 13.6666 7.00016C13.6666 3.31826 10.6819 0.333496 6.99998 0.333496C3.31808 0.333496 0.333313 3.31826 0.333313 7.00016C0.333313 10.6821 3.31808 13.6668 6.99998 13.6668ZM9.99493 8.50014C10.2711 8.50293 10.4972 8.28134 10.5 8.00521C10.5027 7.72908 10.2812 7.50298 10.005 7.50019L8.3249 7.48322C7.86797 7.4786 7.49998 7.10688 7.49998 6.64993V4.3335C7.49998 4.05735 7.27612 3.8335 6.99998 3.8335C6.72384 3.8335 6.49998 4.05735 6.49998 4.3335V6.64993C6.49998 7.65522 7.30955 8.47301 8.3148 8.48317L9.99493 8.50014Z" fill="#828282"/>
</svg>
