<svg width="24" height="24" viewBox="0 0 24 24" fill="none" xmlns="http://www.w3.org/2000/svg">
<path d="M2 7.52381L12 3L22 7.52381" stroke="#C2C7D0" stroke-width="2" stroke-miterlimit="10"/>
<path d="M18.3636 21.9999H5.63635V20.8119C5.63635 19.7145 6.29544 18.7246 7.31453 18.3039C8.34635 17.8787 9.88181 17.4761 12 17.4761C14.1182 17.4761 15.6536 17.8787 16.6854 18.3048C17.7045 18.7246 18.3636 19.7145 18.3636 20.8119V21.9999Z" stroke="#C2C7D0" stroke-width="2" stroke-miterlimit="10" stroke-linecap="square"/>
<path d="M12 14.762C14.0083 14.762 15.6364 13.1417 15.6364 11.143C15.6364 9.14423 14.0083 7.52393 12 7.52393C9.9917 7.52393 8.36365 9.14423 8.36365 11.143C8.36365 13.1417 9.9917 14.762 12 14.762Z" stroke="#C2C7D0" stroke-width="2" stroke-miterlimit="10" stroke-linecap="square"/>
</svg>
