<svg width="24" height="24" viewBox="0 0 24 24" fill="none" xmlns="http://www.w3.org/2000/svg">
<path d="M6.61426 10.6242C6.61426 12.2501 6.70236 13.5055 6.91918 14.4811C7.13411 15.4482 7.46543 16.0938 7.92042 16.5488C8.37541 17.0038 9.02103 17.3351 9.98814 17.5501C10.9638 17.7669 12.2191 17.855 13.8451 17.855C15.471 17.855 16.7264 17.7669 17.702 17.5501C18.6691 17.3351 19.3147 17.0038 19.7697 16.5488C20.2247 16.0938 20.556 15.4482 20.771 14.4811C20.9878 13.5055 21.0759 12.2501 21.0759 10.6242C21.0759 8.99831 20.9878 7.74293 20.771 6.76732C20.556 5.80022 20.2247 5.15461 19.7697 4.69962C19.3147 4.24463 18.6691 3.91332 17.702 3.69839C16.7264 3.48157 15.471 3.39347 13.8451 3.39347C12.2191 3.39347 10.9638 3.48157 9.98814 3.69839C9.02103 3.91332 8.37541 4.24463 7.92042 4.69962C7.46543 5.15461 7.13411 5.80022 6.91918 6.76732C6.70236 7.74293 6.61426 8.99831 6.61426 10.6242Z" stroke="#56C5D0" stroke-width="1.5" stroke-linecap="round" stroke-linejoin="round"/>
<mask id="path-2-inside-1_11368_1699" fill="white">
<path d="M2.17383 13.3755C2.17383 19.9477 3.58244 21.3563 10.1546 21.3563C16.7269 21.3563 18.1355 19.9477 18.1355 13.3755C18.1355 6.80338 16.7269 5.39478 10.1546 5.39478C3.58244 5.39478 2.17383 6.80338 2.17383 13.3755Z"/>
</mask>
<path d="M2.17383 13.3755C2.17383 19.9477 3.58244 21.3563 10.1546 21.3563C16.7269 21.3563 18.1355 19.9477 18.1355 13.3755C18.1355 6.80338 16.7269 5.39478 10.1546 5.39478C3.58244 5.39478 2.17383 6.80338 2.17383 13.3755Z" fill="#FBFBFD"/>
<path d="M0.673828 13.3755C0.673828 15.0528 0.761743 16.503 1.03234 17.7206C1.30672 18.9552 1.78847 20.0406 2.639 20.8911C3.48954 21.7417 4.57496 22.2234 5.80957 22.4978C7.02715 22.7684 8.47736 22.8563 10.1546 22.8563V19.8563C8.54583 19.8563 7.35539 19.7681 6.46042 19.5692C5.58248 19.3741 5.08346 19.0929 4.76032 18.7698C4.43717 18.4467 4.156 17.9477 3.96089 17.0697C3.76199 16.1748 3.67383 14.9843 3.67383 13.3755H0.673828ZM10.1546 22.8563C11.8319 22.8563 13.2821 22.7684 14.4997 22.4978C15.7343 22.2234 16.8198 21.7417 17.6703 20.8911C18.5208 20.0406 19.0026 18.9552 19.277 17.7206C19.5476 16.503 19.6355 15.0528 19.6355 13.3755H16.6355C16.6355 14.9843 16.5473 16.1748 16.3484 17.0697C16.1533 17.9477 15.8721 18.4467 15.549 18.7698C15.2258 19.0929 14.7268 19.3741 13.8489 19.5692C12.9539 19.7681 11.7635 19.8563 10.1546 19.8563V22.8563ZM19.6355 13.3755C19.6355 11.6983 19.5476 10.2481 19.277 9.03049C19.0026 7.79588 18.5208 6.71046 17.6703 5.85993C16.8198 5.0094 15.7343 4.52766 14.4997 4.25328C13.2821 3.98269 11.8319 3.89478 10.1546 3.89478V6.89478C11.7635 6.89478 12.9539 6.98294 13.8489 7.18183C14.7268 7.37695 15.2258 7.65812 15.549 7.98126C15.8721 8.3044 16.1533 8.80341 16.3484 9.68134C16.5473 10.5763 16.6355 11.7667 16.6355 13.3755H19.6355ZM10.1546 3.89478C8.47736 3.89478 7.02715 3.98269 5.80957 4.25328C4.57496 4.52766 3.48954 5.0094 2.639 5.85993C1.78847 6.71046 1.30672 7.79588 1.03234 9.03049C0.761743 10.2481 0.673828 11.6983 0.673828 13.3755H3.67383C3.67383 11.7667 3.76199 10.5763 3.96089 9.68134C4.156 8.80341 4.43717 8.3044 4.76032 7.98126C5.08346 7.65812 5.58248 7.37695 6.46042 7.18183C7.35539 6.98294 8.54583 6.89478 10.1546 6.89478V3.89478Z" fill="#56C5D0" mask="url(#path-2-inside-1_11368_1699)"/>
</svg>
