<svg width="14" height="17" viewBox="0 0 14 17" fill="none" xmlns="http://www.w3.org/2000/svg">
<path fill-rule="evenodd" clip-rule="evenodd" d="M5.05143 9.46478L2.29618 11.046C1.49474 11.5024 0.999878 12.3561 0.999878 13.2788V13.9175C0.999878 13.9175 2.49136 15.9453 7.00031 15.9453C11.5093 15.9453 12.9998 13.9175 12.9998 13.9175V13.2788C12.9998 12.3561 12.5059 11.5024 11.7045 11.046L8.94526 9.46675C8.94526 9.46675 8.13593 10.071 7.00031 10.071C5.86371 10.071 5.05143 9.46478 5.05143 9.46478Z" stroke="#595959" stroke-width="1.5" stroke-linecap="round" stroke-linejoin="round"/>
<path fill-rule="evenodd" clip-rule="evenodd" d="M6.99971 10.0713V10.0713C5.10603 10.0713 3.57117 8.53649 3.57117 6.64281V4.92854C3.57117 3.03486 5.10603 1.5 6.99971 1.5C8.89339 1.5 10.4292 3.03486 10.4292 4.92854V6.64281C10.4292 8.53649 8.89339 10.0713 6.99971 10.0713Z" stroke="#595959" stroke-width="1.5" stroke-linecap="round" stroke-linejoin="round"/>
</svg>
