<svg width="14" height="15" viewBox="0 0 14 15" fill="none" xmlns="http://www.w3.org/2000/svg">
<path fill-rule="evenodd" clip-rule="evenodd" d="M8.82584 2.31456C9.21076 1.92965 9.83482 1.92965 10.2197 2.31456C10.6046 2.69947 10.6046 3.32354 10.2197 3.70845L10.1364 3.79177L8.74253 2.39788L8.82584 2.31456ZM7.68186 3.45854L2.85005 8.29035L2.50158 10.0327L4.24394 9.68424L9.07575 4.85243L7.68186 3.45854ZM10.6623 5.38723L5.14403 10.9055C5.03933 11.0102 4.90598 11.0815 4.76079 11.1106L1.6926 11.7242C1.44671 11.7734 1.1925 11.6964 1.01519 11.5191C0.837869 11.3418 0.760902 11.0876 0.810081 10.8417L1.42372 7.77351C1.45276 7.62832 1.52412 7.49497 1.62882 7.39027L7.76518 1.2539C8.73588 0.283204 10.3097 0.283205 11.2804 1.2539C12.2511 2.2246 12.2511 3.79841 11.2804 4.76911L10.6712 5.37829C10.6697 5.37979 10.6682 5.38129 10.6668 5.38278C10.6653 5.38427 10.6638 5.38575 10.6623 5.38723ZM0.181885 13.4432C0.181885 13.029 0.517671 12.6932 0.931885 12.6932H13.2046C13.6188 12.6932 13.9546 13.029 13.9546 13.4432C13.9546 13.8574 13.6188 14.1932 13.2046 14.1932H0.931885C0.517671 14.1932 0.181885 13.8574 0.181885 13.4432Z" fill="#8C8C8C"/>
</svg>
