<svg width="32" height="32" viewBox="0 0 32 32" fill="none" xmlns="http://www.w3.org/2000/svg">
<path fill-rule="evenodd" clip-rule="evenodd" d="M5 7.41699C4.86193 7.41699 4.75 7.52892 4.75 7.66699V23.467C4.75 23.9782 5.27703 24.5837 6.18182 24.5837H25.8182C26.723 24.5837 27.25 23.9782 27.25 23.467V7.66699C27.25 7.52892 27.1381 7.41699 27 7.41699H5ZM3.25 7.66699C3.25 6.7005 4.0335 5.91699 5 5.91699H27C27.9665 5.91699 28.75 6.70049 28.75 7.66699V23.467C28.75 25.0176 27.3234 26.0837 25.8182 26.0837H6.18182C4.67664 26.0837 3.25 25.0176 3.25 23.467V7.66699Z" fill="white"/>
<path d="M4 6.66699L16 17.3337L28 6.66699" stroke="white" stroke-width="1.5" stroke-linejoin="round"/>
</svg>
