<svg width="100" height="100" viewBox="0 0 100 100" fill="none" xmlns="http://www.w3.org/2000/svg">
<path d="M88.0228 30.5997L56.9414 10.8206C55.0481 9.65323 52.871 9.02391 50.6452 9.00067C48.4195 8.97743 46.2297 9.56113 44.3123 10.6888L13.1391 31.4448C11.2656 32.5626 9.71495 34.1462 8.63888 36.0408C7.5628 37.9354 6.99811 40.076 7 42.2534V77.1743C7 83.3241 11.9464 88.3248 18.0072 88.3248L24.8615 88.3893C25.0853 88.7747 25.3573 89.1301 25.671 89.4471C26.1558 89.9392 26.7342 90.33 27.3722 90.5966C28.0102 90.8633 28.6951 91.0004 29.3868 91C30.0773 91.0004 30.761 90.8637 31.398 90.5981C32.035 90.3324 32.6126 89.9429 33.0973 89.4524C34.0813 88.447 34.6322 87.0976 34.6322 85.6926C34.6322 84.2875 34.0813 82.9382 33.0973 81.9327C32.6125 81.44 32.034 81.0486 31.3958 80.7814C30.7575 80.5142 30.0723 80.3766 29.3801 80.3766C28.6879 80.3766 28.0027 80.5142 27.3644 80.7814C26.7262 81.0486 26.1477 81.44 25.6629 81.9327C25.1891 82.4106 24.8125 82.9754 24.5538 83.596L18.0234 83.5448C16.3432 83.5313 14.7369 82.8535 13.5571 81.6602C12.3774 80.4669 11.7204 78.8555 11.7305 77.1797V42.2534C11.7297 40.9052 12.0806 39.5799 12.7486 38.4078C13.4166 37.2357 14.3789 36.2571 15.5408 35.568L46.7113 14.8147C47.8992 14.1233 49.2538 13.7685 50.6291 13.7884C52.0044 13.8083 53.3481 14.2022 54.5154 14.9277L85.5941 34.7068C86.7175 35.4077 87.6441 36.3816 88.2869 37.5373C88.9298 38.693 89.2679 39.9925 89.2695 41.3142V75.9632C89.281 77.9981 88.483 79.9545 87.0504 81.4035C85.6178 82.8525 83.6676 83.6758 81.6273 83.6929H47.2402C45.1999 83.6758 43.2497 82.8525 41.8171 81.4035C40.3845 79.9545 39.5865 77.9981 39.598 75.9632V47.7843C39.5872 45.7528 40.3829 43.7996 41.8112 42.3513C43.2396 40.903 45.1846 40.0773 47.2213 40.0546H53.3955V40.0788C59.1568 40.0788 63.8414 44.8183 63.8414 50.6452C63.8464 52.9638 63.088 55.2199 61.6826 57.0669C59.3862 55.6512 56.6094 54.9326 53.3766 54.9326L49.1696 54.9676C46.8516 54.9676 45.3917 55.8181 44.5957 56.5313C44.0361 57.0252 43.5876 57.6317 43.2797 58.3108C42.9719 58.9899 42.8115 59.7262 42.8093 60.4715C42.8093 63.1629 44.9411 66.0023 48.8917 66.0023H53.7976V65.9889C56.6115 65.914 59.3472 65.0493 61.6907 63.4939C64.6591 67.6495 64.7077 74.4533 64.6834 78.8726H69.4139C69.4435 73.7051 69.3734 65.6659 65.2096 60.267C67.3923 57.533 68.578 54.14 68.5719 50.6452C68.5719 42.2481 61.8688 35.4065 53.5925 35.3043V35.2747H47.2132C40.4076 35.2908 34.8675 40.9024 34.8675 47.7897V75.9686C34.8631 78.7655 35.7947 81.4839 37.5148 83.6929L38.0545 84.3334C39.2043 85.6357 40.6187 86.6793 42.2038 87.3948C43.7889 88.1103 45.5084 88.4814 47.2483 88.4835H81.6273C88.4492 88.4835 94 82.8693 94 75.9686V41.3142C93.9962 39.1693 93.4456 37.0606 92.4 35.1863C91.3544 33.3121 89.8482 31.7337 88.0228 30.5997ZM27.6058 83.9001C27.8359 83.6661 28.1106 83.4804 28.4136 83.3537C28.7167 83.2271 29.0421 83.1621 29.3707 83.1627C29.6996 83.1624 30.0253 83.2274 30.3288 83.354C30.6323 83.4807 30.9074 83.6663 31.1382 83.9001C31.6068 84.377 31.8692 85.0181 31.8692 85.6858C31.8692 86.3536 31.6068 86.9947 31.1382 87.4716C30.9076 87.7054 30.6327 87.8911 30.3295 88.0178C30.0263 88.1445 29.7008 88.2098 29.372 88.2098C29.0432 88.2098 28.7177 88.1445 28.4145 88.0178C28.1113 87.8911 27.8364 87.7054 27.6058 87.4716C27.1373 86.9947 26.8748 86.3536 26.8748 85.6858C26.8748 85.0181 27.1373 84.377 27.6058 83.9001ZM53.3874 61.2089H48.8917C47.9634 61.2089 47.5424 60.8241 47.5424 60.4634C47.5424 60.0463 48.2279 59.7448 49.1939 59.7448L53.3982 59.7098C54.8021 59.6844 56.2001 59.8974 57.5323 60.3396C56.2287 60.9123 54.82 61.2084 53.3955 61.2089H53.3874Z" fill="#EF532D"/>
</svg>
