<svg width="16" height="16" viewBox="0 0 16 16" fill="none" xmlns="http://www.w3.org/2000/svg">
<path d="M12.9091 3.09082H3.09091C2.48842 3.09082 2 3.57924 2 4.18173V12.3635C2 12.966 2.48842 13.4545 3.09091 13.4545H12.9091C13.5116 13.4545 14 12.966 14 12.3635V4.18173C14 3.57924 13.5116 3.09082 12.9091 3.09082Z" stroke="#CED4DA" stroke-width="1.5" stroke-miterlimit="10" stroke-linecap="round" stroke-linejoin="round"/>
<path d="M4.72729 2V3.63636" stroke="#CED4DA" stroke-width="1.5" stroke-miterlimit="10" stroke-linecap="round" stroke-linejoin="round"/>
<path d="M11.2727 2V3.63636" stroke="#CED4DA" stroke-width="1.5" stroke-miterlimit="10" stroke-linecap="round" stroke-linejoin="round"/>
<path d="M2 5.81836H14" stroke="#CED4DA" stroke-width="1.5" stroke-miterlimit="10" stroke-linecap="round" stroke-linejoin="round"/>
</svg>
