<svg width="14" height="14" viewBox="0 0 14 14" fill="none" xmlns="http://www.w3.org/2000/svg">
<mask id="path-1-inside-1" fill="white">
<path fill-rule="evenodd" clip-rule="evenodd" d="M6.99998 12.6668C10.1296 12.6668 12.6666 10.1298 12.6666 7.00016C12.6666 3.87055 10.1296 1.3335 6.99998 1.3335C3.87037 1.3335 1.33331 3.87055 1.33331 7.00016C1.33331 10.1298 3.87037 12.6668 6.99998 12.6668ZM13.6666 7.00016C13.6666 10.6821 10.6819 13.6668 6.99998 13.6668C3.31808 13.6668 0.333313 10.6821 0.333313 7.00016C0.333313 3.31826 3.31808 0.333496 6.99998 0.333496C10.6819 0.333496 13.6666 3.31826 13.6666 7.00016ZM6.99998 10.5304C6.72384 10.5304 6.49998 10.3066 6.49998 10.0304V6.39407C6.49998 6.11793 6.72384 5.89407 6.99998 5.89407C7.27612 5.89407 7.49998 6.11793 7.49998 6.39407V10.0304C7.49998 10.3066 7.27612 10.5304 6.99998 10.5304ZM6.33331 3.96989C6.33331 3.6017 6.63179 3.30322 6.99998 3.30322C7.36817 3.30322 7.66665 3.6017 7.66665 3.96989C7.66665 4.33808 7.36817 4.63656 6.99998 4.63656C6.63179 4.63656 6.33331 4.33808 6.33331 3.96989Z"/>
</mask>
<path fill-rule="evenodd" clip-rule="evenodd" d="M6.99998 12.6668C10.1296 12.6668 12.6666 10.1298 12.6666 7.00016C12.6666 3.87055 10.1296 1.3335 6.99998 1.3335C3.87037 1.3335 1.33331 3.87055 1.33331 7.00016C1.33331 10.1298 3.87037 12.6668 6.99998 12.6668ZM13.6666 7.00016C13.6666 10.6821 10.6819 13.6668 6.99998 13.6668C3.31808 13.6668 0.333313 10.6821 0.333313 7.00016C0.333313 3.31826 3.31808 0.333496 6.99998 0.333496C10.6819 0.333496 13.6666 3.31826 13.6666 7.00016ZM6.99998 10.5304C6.72384 10.5304 6.49998 10.3066 6.49998 10.0304V6.39407C6.49998 6.11793 6.72384 5.89407 6.99998 5.89407C7.27612 5.89407 7.49998 6.11793 7.49998 6.39407V10.0304C7.49998 10.3066 7.27612 10.5304 6.99998 10.5304ZM6.33331 3.96989C6.33331 3.6017 6.63179 3.30322 6.99998 3.30322C7.36817 3.30322 7.66665 3.6017 7.66665 3.96989C7.66665 4.33808 7.36817 4.63656 6.99998 4.63656C6.63179 4.63656 6.33331 4.33808 6.33331 3.96989Z" fill="#8C8C8C"/>
<path d="M11.6666 7.00016C11.6666 9.57749 9.57731 11.6668 6.99998 11.6668V13.6668C10.6819 13.6668 13.6666 10.6821 13.6666 7.00016H11.6666ZM6.99998 2.3335C9.57731 2.3335 11.6666 4.42283 11.6666 7.00016H13.6666C13.6666 3.31826 10.6819 0.333496 6.99998 0.333496V2.3335ZM2.33331 7.00016C2.33331 4.42283 4.42265 2.3335 6.99998 2.3335V0.333496C3.31808 0.333496 0.333313 3.31826 0.333313 7.00016H2.33331ZM6.99998 11.6668C4.42265 11.6668 2.33331 9.57749 2.33331 7.00016H0.333313C0.333313 10.6821 3.31808 13.6668 6.99998 13.6668V11.6668ZM6.99998 14.6668C11.2342 14.6668 14.6666 11.2343 14.6666 7.00016H12.6666C12.6666 10.1298 10.1296 12.6668 6.99998 12.6668V14.6668ZM-0.666687 7.00016C-0.666687 11.2343 2.7658 14.6668 6.99998 14.6668V12.6668C3.87037 12.6668 1.33331 10.1298 1.33331 7.00016H-0.666687ZM6.99998 -0.666504C2.7658 -0.666504 -0.666687 2.76598 -0.666687 7.00016H1.33331C1.33331 3.87055 3.87037 1.3335 6.99998 1.3335V-0.666504ZM14.6666 7.00016C14.6666 2.76598 11.2342 -0.666504 6.99998 -0.666504V1.3335C10.1296 1.3335 12.6666 3.87055 12.6666 7.00016H14.6666ZM5.49998 10.0304C5.49998 10.8589 6.17155 11.5304 6.99998 11.5304V9.53044C7.27612 9.53044 7.49998 9.75429 7.49998 10.0304H5.49998ZM5.49998 6.39407V10.0304H7.49998V6.39407H5.49998ZM6.99998 4.89407C6.17155 4.89407 5.49998 5.56565 5.49998 6.39407H7.49998C7.49998 6.67021 7.27612 6.89407 6.99998 6.89407V4.89407ZM8.49998 6.39407C8.49998 5.56565 7.82841 4.89407 6.99998 4.89407V6.89407C6.72384 6.89407 6.49998 6.67021 6.49998 6.39407H8.49998ZM8.49998 10.0304V6.39407H6.49998V10.0304H8.49998ZM6.99998 11.5304C7.82841 11.5304 8.49998 10.8589 8.49998 10.0304H6.49998C6.49998 9.75429 6.72384 9.53044 6.99998 9.53044V11.5304ZM6.99998 2.30322C6.07951 2.30322 5.33331 3.04942 5.33331 3.96989H7.33331C7.33331 4.15398 7.18407 4.30322 6.99998 4.30322V2.30322ZM8.66665 3.96989C8.66665 3.04941 7.92045 2.30322 6.99998 2.30322V4.30322C6.81589 4.30322 6.66665 4.15399 6.66665 3.96989H8.66665ZM6.99998 5.63656C7.92045 5.63656 8.66665 4.89036 8.66665 3.96989H6.66665C6.66665 3.78579 6.81589 3.63656 6.99998 3.63656V5.63656ZM5.33331 3.96989C5.33331 4.89036 6.07951 5.63656 6.99998 5.63656V3.63656C7.18407 3.63656 7.33331 3.78579 7.33331 3.96989H5.33331Z" fill="#8C8C8C" mask="url(#path-1-inside-1)"/>
</svg>
