<svg width="26" height="26" viewBox="0 0 26 26" fill="none" xmlns="http://www.w3.org/2000/svg">
<path fill-rule="evenodd" clip-rule="evenodd" d="M16.9698 15.6225L14.4007 18.1569C13.0609 17.3491 11.8163 16.3931 10.6903 15.3069C9.60583 14.1791 8.64999 12.9343 7.84036 11.5954L10.3723 9.02622C10.686 8.70772 10.776 8.23126 10.6003 7.82024L7.96036 1.66673C7.7448 1.16524 7.1945 0.89724 6.66678 1.03674L1.82605 2.31712C1.32821 2.44618 0.985682 2.90223 1.00046 3.41631C1.30847 9.04635 3.64936 14.3733 7.58836 18.4077C11.6235 22.3479 16.9519 24.6893 22.5833 24.9968C23.0981 25.0141 23.5557 24.6713 23.6837 24.1724L24.9629 19.3293C25.1031 18.8018 24.8355 18.2513 24.3341 18.0357L18.1794 15.3969C17.7679 15.2186 17.2894 15.3079 16.9698 15.6225Z" stroke="white" stroke-width="1.5" stroke-linecap="round" stroke-linejoin="round"/>
</svg>
