<svg width="20" height="20" viewBox="0 0 20 20" fill="none" xmlns="http://www.w3.org/2000/svg">
<path fill-rule="evenodd" clip-rule="evenodd" d="M1.5 4.75C1.5 2.95507 2.95507 1.5 4.75 1.5H15.25C17.0449 1.5 18.5 2.95507 18.5 4.75V15.25C18.5 17.0449 17.0449 18.5 15.25 18.5H4.75C2.95507 18.5 1.5 17.0449 1.5 15.25V4.75ZM4.75 0C2.12665 0 0 2.12665 0 4.75V15.25C0 17.8734 2.12665 20 4.75 20H15.25C17.8734 20 20 17.8734 20 15.25V4.75C20 2.12665 17.8734 0 15.25 0H4.75ZM10 4.90234C10.4142 4.90234 10.75 5.23813 10.75 5.65234V9.25H14.3478C14.762 9.25 15.0978 9.58579 15.0978 10C15.0978 10.4142 14.762 10.75 14.3478 10.75H10.75V14.348C10.75 14.7622 10.4142 15.098 10 15.098C9.58579 15.098 9.25 14.7622 9.25 14.348V10.75H5.65216C5.23795 10.75 4.90216 10.4142 4.90216 10C4.90216 9.58579 5.23795 9.25 5.65216 9.25H9.25V5.65234C9.25 5.23813 9.58579 4.90234 10 4.90234Z" fill="white"/>
</svg>
