<svg width="20" height="19" viewBox="0 0 20 19" fill="none" xmlns="http://www.w3.org/2000/svg">
<path d="M10.0001 1.45801L12.9754 6.4192L18.6132 7.71582L14.8143 12.0786L15.3233 17.8412L10.0001 15.5763L4.67689 17.8412L5.18591 12.0786L1.38696 7.71582L7.02477 6.4192L10.0001 1.45801Z" fill="white" stroke="#FFBB00" stroke-width="1.5" stroke-linejoin="round"/>
</svg>
