<svg width="13" height="25" viewBox="0 0 13 25" fill="none" xmlns="http://www.w3.org/2000/svg">
<path d="M12.5519 13.6654L2.01219 24.578C1.96043 24.6383 1.90866 24.6785 1.85043 24.7253C1.77926 24.7923 1.70162 24.8526 1.61751 24.8928C1.59163 24.9062 1.55928 24.9196 1.52693 24.933C1.43635 24.9665 1.34577 24.9866 1.25519 24.9933C1.22284 25 1.18402 25 1.1452 25C1.06756 25 0.989918 24.9732 0.912277 24.9531C0.873457 24.9397 0.821696 24.933 0.782876 24.9129C0.679355 24.8593 0.575834 24.7923 0.485254 24.6985C0.232922 24.4641 0.0517604 24.1157 -5.65143e-08 23.7071L0.00646901 1.22544C0.00646896 0.133516 1.28107 -0.409096 2.02512 0.361282L12.5648 11.2739C13.1536 11.8768 13.1407 13.0357 12.5519 13.6654Z" fill="#F15B40"/>
</svg>
