<svg width="18" height="16" viewBox="0 0 18 16" fill="none" xmlns="http://www.w3.org/2000/svg">
<path d="M17.8995 14.7232L9.6488 0.47199C9.57755 0.365242 9.48106 0.277724 9.36788 0.217196C9.25471 0.156668 9.12834 0.125 9 0.125C8.87165 0.125 8.74529 0.156668 8.63212 0.217196C8.51894 0.277724 8.42245 0.365242 8.35119 0.47199L0.10049 14.7232C0.0346904 14.8372 3.38101e-05 14.9664 2.47256e-08 15.098C-3.37606e-05 15.2296 0.0345564 15.3589 0.100297 15.4729C0.166038 15.5869 0.260615 15.6816 0.374533 15.7475C0.48845 15.8134 0.617697 15.8482 0.749295 15.8483H17.2507C17.3823 15.8482 17.5116 15.8134 17.6255 15.7475C17.7394 15.6816 17.834 15.5869 17.8997 15.4729C17.9654 15.3589 18 15.2296 18 15.098C18 14.9664 17.9653 14.8372 17.8995 14.7232ZM9.90458 5.34741L9.5498 10.2978H8.4502L8.11567 5.34741H9.90458ZM9 13.5981C8.78237 13.5981 8.56963 13.5336 8.38868 13.4127C8.20773 13.2918 8.0667 13.1199 7.98341 12.9188C7.90013 12.7178 7.87834 12.4965 7.9208 12.2831C7.96325 12.0697 8.06805 11.8736 8.22194 11.7197C8.37582 11.5658 8.57189 11.461 8.78533 11.4186C8.99878 11.3761 9.22002 11.3979 9.42108 11.4812C9.62214 11.5645 9.79399 11.7055 9.9149 11.8864C10.0358 12.0674 10.1003 12.2801 10.1003 12.4978C10.1003 12.7896 9.98441 13.0695 9.77806 13.2758C9.57171 13.4822 9.29183 13.5981 9 13.5981Z" fill="#FFBB00"/>
</svg>
