<?xml version="1.0" standalone="no"?>
<!DOCTYPE svg PUBLIC "-//W3C//DTD SVG 20010904//EN"
 "http://www.w3.org/TR/2001/REC-SVG-20010904/DTD/svg10.dtd">
<svg version="1.0" xmlns="http://www.w3.org/2000/svg"
 width="700.000000pt" height="700.000000pt" viewBox="0 0 700.000000 700.000000"
 preserveAspectRatio="xMidYMid meet">
<metadata>
Created by potrace 1.14, written by Peter Selinger 2001-2017
</metadata>
<g transform="translate(0.000000,700.000000) scale(0.100000,-0.100000)"
fill="#000000" stroke="none">
<path d="M3380 6355 c-82 -17 -150 -39 -220 -74 -30 -15 -572 -372 -1205 -793
-926 -617 -1162 -779 -1212 -830 -118 -122 -196 -267 -233 -436 -19 -84 -20
-136 -17 -1417 2 -731 6 -1345 11 -1364 55 -236 208 -437 411 -539 75 -38 165
-67 235 -77 30 -4 165 -9 300 -10 135 -2 256 -4 270 -4 17 -1 34 -14 52 -41
33 -48 116 -104 181 -124 27 -8 81 -14 121 -13 190 5 349 170 348 362 0 187
-127 343 -304 373 -58 10 -152 -2 -211 -27 -57 -25 -142 -102 -168 -154 l-20
-38 -250 1 c-186 1 -264 5 -307 16 -158 41 -273 150 -321 304 -20 64 -20 90
-21 1345 0 1410 -3 1343 62 1475 63 127 59 124 1270 929 620 413 1148 760
1174 771 54 25 162 47 219 44 140 -6 207 -34 440 -186 39 -25 246 -157 460
-293 215 -136 413 -262 440 -280 28 -18 282 -180 565 -360 283 -180 542 -347
576 -370 101 -72 178 -191 210 -323 11 -46 13 -294 13 -1332 0 -1399 3 -1328
-59 -1452 -75 -148 -205 -247 -375 -284 -76 -16 -2516 -19 -2605 -3 -30 6 -91
28 -136 49 -142 68 -244 195 -285 354 -18 67 -19 132 -19 1111 1 1143 -1 1105
62 1235 43 88 151 196 238 238 107 50 171 58 463 57 288 -2 337 -6 440 -41
241 -82 437 -307 482 -554 12 -65 14 -215 4 -270 -19 -105 -72 -234 -121 -293
l-23 -29 -71 36 c-78 39 -128 57 -224 80 -107 25 -174 30 -418 28 -178 -1
-248 -5 -298 -18 -303 -76 -408 -420 -192 -633 60 -59 127 -94 215 -111 64
-13 527 -9 588 4 142 32 245 69 336 122 32 19 61 34 66 34 15 0 89 -148 118
-233 29 -89 61 -233 70 -322 3 -33 8 -76 11 -95 3 -19 7 -120 9 -224 3 -104 7
-191 9 -193 3 -3 187 -6 295 -4 l34 1 -7 208 c-3 114 -8 223 -10 242 -3 19 -7
59 -10 88 -31 276 -108 517 -223 693 -43 66 -50 84 -35 91 11 5 77 109 110
174 71 142 104 280 107 449 4 189 -26 340 -99 492 -127 264 -354 465 -629 558
-141 47 -224 54 -572 51 -176 -1 -331 -5 -345 -8 -329 -66 -587 -310 -682
-643 l-23 -80 -2 -1095 c-2 -947 0 -1106 13 -1175 69 -361 336 -631 699 -706
46 -9 360 -12 1315 -13 690 -1 1289 2 1330 7 312 32 582 231 707 522 27 62 34
84 50 145 19 75 22 278 20 1450 l-2 1325 -28 90 c-16 50 -44 122 -64 160 -93
183 -172 257 -479 454 -81 52 -764 487 -819 521 -107 68 -494 314 -850 541
-390 249 -461 288 -581 320 -98 26 -280 33 -374 14z m536 -3550 c111 -20 117
-28 37 -53 -103 -33 -150 -38 -369 -37 -173 1 -205 3 -228 18 -44 29 -30 60
34 80 35 11 459 4 526 -8z m-1799 -1640 c106 -45 144 -161 84 -256 -89 -142
-307 -87 -316 79 -5 85 36 151 112 178 50 17 76 17 120 -1z"/>
</g>
</svg>
