<svg width="16" height="16" viewBox="0 0 16 16" fill="none" xmlns="http://www.w3.org/2000/svg">
<path d="M7.99104 1.5C7.16607 1.5 6.49109 2.175 6.50009 3C6.50009 3.825 7.17507 4.5 8.00004 4.5C8.82502 4.5 9.5 3.825 9.5 3C9.5 2.175 8.82502 1.5 7.99104 1.5Z" fill="black"/>
<path d="M7.99104 6.5C7.16607 6.5 6.49109 7.175 6.50009 8C6.50009 8.825 7.17507 9.5 8.00004 9.5C8.82502 9.5 9.5 8.825 9.5 8C9.5 7.175 8.82502 6.5 7.99104 6.5Z" fill="black"/>
<path d="M7.99104 11.5C7.16607 11.5 6.49109 12.175 6.50009 13C6.50009 13.825 7.17507 14.5 8.00004 14.5C8.82502 14.5 9.5 13.825 9.5 13C9.5 12.175 8.82502 11.5 7.99104 11.5Z" fill="black"/>
</svg>
